PCBNEW-LibModule-V1  10/12/13 18:56:53
# encoding utf-8
Units deci-mils
$INDEX
BOURNS_EN14
CHERRY_MX
HC-49S
LED_MATRIX_8x8
SOP-24
SOP-28
TQFP-32
$EndINDEX
$MODULE BOURNS_EN14
Po 0 0 0 15 51929844 00000000 ~~
Li BOURNS_EN14
Sc 0
AR 
Op 0 0 0
T0 0 -750 394 394 0 59 N V 21 N "BOURNS_EN14"
T1 0 -4500 394 394 0 59 N V 21 N "VAL**"
DS 0 700 -2800 700 59 21
DS -2800 700 -2800 -5150 59 21
DS -2800 -5150 2800 -5150 59 21
DS 0 700 2800 700 59 21
DS 2800 700 2800 -5150 59 21
$PAD
Sh "2" C 394 394 0 0 0
Dr 252 0 0
At STD N 00E0FFFF
Ne 0 ""
Po -1250 0
$EndPAD
$PAD
Sh "4" C 394 394 0 0 0
Dr 252 0 0
At STD N 00E0FFFF
Ne 0 ""
Po -750 0
$EndPAD
$PAD
Sh "6" C 394 394 0 0 0
Dr 252 0 0
At STD N 00E0FFFF
Ne 0 ""
Po -250 0
$EndPAD
$PAD
Sh "5" C 394 394 0 0 0
Dr 252 0 0
At STD N 00E0FFFF
Ne 0 ""
Po 250 0
$EndPAD
$PAD
Sh "1" C 394 394 0 0 0
Dr 252 0 0
At STD N 00E0FFFF
Ne 0 ""
Po 750 0
$EndPAD
$PAD
Sh "3" C 394 394 0 0 0
Dr 252 0 0
At STD N 00E0FFFF
Ne 0 ""
Po 1250 0
$EndPAD
$PAD
Sh "2" C 984 984 0 0 0
Dr 681 0 0
At STD N 00E0FFFF
Ne 0 ""
Po -2876 -2461
$EndPAD
$PAD
Sh "2" C 984 984 0 0 0
Dr 681 0 0
At STD N 00E0FFFF
Ne 0 ""
Po 2876 -2461
$EndPAD
$EndMODULE BOURNS_EN14
$MODULE CHERRY_MX
Po 0 0 0 15 5192C474 00000000 ~~
Li CHERRY_MX
Sc 0
AR 
Op 0 0 0
T0 0 2500 394 394 0 59 N V 21 N "CHERRY_MX"
T1 0 1500 394 394 0 59 N V 21 N "VAL**"
DS 3000 3000 3000 -3000 59 21
DS 3000 -3000 -3000 -3000 59 21
DS -3000 -3000 -3000 3000 59 21
DS -3000 3000 3000 3000 59 21
$PAD
Sh "" C 1570 1570 0 0 0
Dr 1570 0 0
At HOLE N 00E0FFFF
Ne 0 ""
Po 0 0
$EndPAD
$PAD
Sh "1" C 1000 1000 0 0 0
Dr 590 0 0
At STD N 00E0FFFF
Ne 0 ""
Po -1500 -1000
$EndPAD
$PAD
Sh "2" C 1000 1000 0 0 0
Dr 590 0 0
At STD N 00E0FFFF
Ne 0 ""
Po 1000 -2000
$EndPAD
$PAD
Sh "" C 670 670 0 0 0
Dr 670 0 0
At HOLE N 00E0FFFF
Ne 0 ""
Po 2000 0
.ZoneConnection 0
$EndPAD
$PAD
Sh "" C 670 670 0 0 0
Dr 670 0 0
At HOLE N 00E0FFFF
Ne 0 ""
Po -2000 0
.ZoneConnection 0
$EndPAD
$EndMODULE CHERRY_MX
$MODULE HC-49S
Po 0 0 0 15 52589A1C 00000000 ~~
Li HC-49S
Kw crystal
Sc 0
AR 
Op 0 0 0
T0 0 591 394 394 0 59 N V 21 N "HC-49S"
T1 0 -492 394 394 0 59 N V 21 N "VAL**"
DA -984 0 -1870 0 900 59 21
DA -984 0 -984 886 900 59 21
DA 984 0 1870 0 900 59 21
DA 984 0 984 -886 900 59 21
DS -984 -886 984 -886 59 21
DS -984 886 984 886 59 21
$PAD
Sh "1" C 394 394 0 0 0
Dr 197 0 0
At STD N 00E0FFFF
Ne 0 ""
Po -961 0
$EndPAD
$PAD
Sh "2" C 394 394 0 0 0
Dr 197 0 0
At STD N 00E0FFFF
Ne 0 ""
Po 961 0
$EndPAD
$EndMODULE HC-49S
$MODULE LED_MATRIX_8x8
Po 0 0 0 15 5258B6A0 00000000 ~~
Li LED_MATRIX_8x8
Sc 0
AR /524B7872
Op 0 0 0
T0 0 -3543 394 394 0 59 N V 21 N "U3"
T1 0 0 394 394 0 59 N V 21 N "LED_M_8X8"
DS 6299 6299 6299 -6299 59 21
DS 6299 -6299 -6299 -6299 59 21
DS -6299 -6299 -6299 6299 59 21
DS -6299 6299 6299 6299 59 21
$PAD
Sh "1" R 512 512 0 0 0
Dr 236 0 0
At STD N 00E0FFFF
Ne 21 "/R8"
Po -5500 4724
$EndPAD
$PAD
Sh "2" C 512 512 0 0 0
Dr 236 0 0
At STD N 00E0FFFF
Ne 22 "/R9"
Po -4500 4724
$EndPAD
$PAD
Sh "3" C 512 512 0 0 0
Dr 236 0 0
At STD N 00E0FFFF
Ne 5 "/C4"
Po -3500 4724
$EndPAD
$PAD
Sh "4" C 512 512 0 0 0
Dr 236 0 0
At STD N 00E0FFFF
Ne 9 "/R10"
Po -2500 4724
$EndPAD
$PAD
Sh "5" C 512 512 0 0 0
Dr 236 0 0
At STD N 00E0FFFF
Ne 10 "/R11"
Po -1500 4724
$EndPAD
$PAD
Sh "6" C 472 472 0 0 0
Dr 236 0 0
At STD N 00E0FFFF
Ne 6 "/C5"
Po -500 4724
$EndPAD
$PAD
Sh "7" C 512 512 0 0 0
Dr 236 0 0
At STD N 00E0FFFF
Ne 11 "/R12"
Po 500 4724
$EndPAD
$PAD
Sh "8" C 512 512 0 0 0
Dr 236 0 0
At STD N 00E0FFFF
Ne 12 "/R13"
Po 1500 4724
$EndPAD
$PAD
Sh "9" C 512 512 0 0 0
Dr 236 0 0
At STD N 00E0FFFF
Ne 7 "/C6"
Po 2500 4724
$EndPAD
$PAD
Sh "10" C 512 512 0 0 0
Dr 236 0 0
At STD N 00E0FFFF
Ne 13 "/R14"
Po 3500 4724
$EndPAD
$PAD
Sh "11" C 512 512 0 0 0
Dr 236 0 0
At STD N 00E0FFFF
Ne 14 "/R15"
Po 4500 4724
$EndPAD
$PAD
Sh "13" C 512 512 0 0 0
Dr 236 0 0
At STD N 00E0FFFF
Ne 4 "/C3"
Po 5500 -4725
$EndPAD
$PAD
Sh "14" C 512 512 0 0 0
Dr 236 0 0
At STD N 00E0FFFF
Ne 20 "/R7"
Po 4500 -4725
$EndPAD
$PAD
Sh "15" C 512 512 0 0 0
Dr 236 0 0
At STD N 00E0FFFF
Ne 19 "/R6"
Po 3500 -4725
$EndPAD
$PAD
Sh "16" C 512 512 0 0 0
Dr 236 0 0
At STD N 00E0FFFF
Ne 3 "/C2"
Po 2500 -4725
$EndPAD
$PAD
Sh "17" C 512 512 0 0 0
Dr 236 0 0
At STD N 00E0FFFF
Ne 18 "/R5"
Po 1500 -4725
$EndPAD
$PAD
Sh "18" C 512 512 0 0 0
Dr 236 0 0
At STD N 00E0FFFF
Ne 17 "/R4"
Po 500 -4725
$EndPAD
$PAD
Sh "19" C 512 512 0 0 0
Dr 236 0 0
At STD N 00E0FFFF
Ne 2 "/C1"
Po -500 -4724
$EndPAD
$PAD
Sh "20" C 512 512 0 0 0
Dr 236 0 0
At STD N 00E0FFFF
Ne 16 "/R3"
Po -1500 -4725
$EndPAD
$PAD
Sh "21" C 512 512 0 0 0
Dr 236 0 0
At STD N 00E0FFFF
Ne 15 "/R2"
Po -2500 -4725
$EndPAD
$PAD
Sh "22" C 512 512 0 0 0
Dr 236 0 0
At STD N 00E0FFFF
Ne 1 "/C0"
Po -3500 -4724
$EndPAD
$PAD
Sh "23" C 512 512 0 0 0
Dr 236 0 0
At STD N 00E0FFFF
Ne 0 ""
Po -4500 -4724
$EndPAD
$PAD
Sh "12" C 512 512 0 0 0
Dr 236 0 0
At STD N 00E0FFFF
Ne 8 "/C7"
Po 5500 4724
$EndPAD
$PAD
Sh "24" C 512 512 0 0 0
Dr 236 0 0
At STD N 00E0FFFF
Ne 0 ""
Po -5500 -4724
$EndPAD
$EndMODULE LED_MATRIX_8x8
$MODULE SOP-24
Po 0 0 0 15 5254A0D5 00000000 ~~
Li SOP-24
Sc 0
AR 
Op 0 0 0
T0 0 0 394 394 0 59 N V 21 N "SOP-24"
T1 -3500 0 394 394 900 59 N V 21 N "VAL**"
DC -2750 1000 -2750 1250 59 21
DS -3250 -1500 -3250 1500 59 21
DS -3250 1500 3250 1500 59 21
DS 3250 1500 3250 -1500 59 21
DS 3250 -1500 -3250 -1500 59 21
$PAD
Sh "1" R 248 720 0 0 0
Dr 0 0 0
At SMD N 00888000
Ne 0 ""
Po -2750 1933
$EndPAD
$PAD
Sh "2" R 248 720 0 0 0
Dr 0 0 0
At SMD N 00888000
Ne 0 ""
Po -2250 1933
$EndPAD
$PAD
Sh "3" R 248 720 0 0 0
Dr 0 0 0
At SMD N 00888000
Ne 0 ""
Po -1750 1933
$EndPAD
$PAD
Sh "4" R 248 720 0 0 0
Dr 0 0 0
At SMD N 00888000
Ne 0 ""
Po -1250 1933
$EndPAD
$PAD
Sh "5" R 248 720 0 0 0
Dr 0 0 0
At SMD N 00888000
Ne 0 ""
Po -750 1933
$EndPAD
$PAD
Sh "6" R 248 720 0 0 0
Dr 0 0 0
At SMD N 00888000
Ne 0 ""
Po -250 1933
$EndPAD
$PAD
Sh "7" R 248 720 0 0 0
Dr 0 0 0
At SMD N 00888000
Ne 0 ""
Po 250 1933
$EndPAD
$PAD
Sh "8" R 248 720 0 0 0
Dr 0 0 0
At SMD N 00888000
Ne 0 ""
Po 750 1933
$EndPAD
$PAD
Sh "9" R 248 720 0 0 0
Dr 0 0 0
At SMD N 00888000
Ne 0 ""
Po 1250 1933
$EndPAD
$PAD
Sh "10" R 248 720 0 0 0
Dr 0 0 0
At SMD N 00888000
Ne 0 ""
Po 1750 1933
$EndPAD
$PAD
Sh "11" R 248 720 0 0 0
Dr 0 0 0
At SMD N 00888000
Ne 0 ""
Po 2250 1933
$EndPAD
$PAD
Sh "12" R 248 720 0 0 0
Dr 0 0 0
At SMD N 00888000
Ne 0 ""
Po 2750 1933
$EndPAD
$PAD
Sh "13" R 248 720 0 0 0
Dr 0 0 0
At SMD N 00888000
Ne 0 ""
Po 2750 -1933
$EndPAD
$PAD
Sh "14" R 248 720 0 0 0
Dr 0 0 0
At SMD N 00888000
Ne 0 ""
Po 2250 -1933
$EndPAD
$PAD
Sh "15" R 248 720 0 0 0
Dr 0 0 0
At SMD N 00888000
Ne 0 ""
Po 1750 -1933
$EndPAD
$PAD
Sh "16" R 248 720 0 0 0
Dr 0 0 0
At SMD N 00888000
Ne 0 ""
Po 1250 -1933
$EndPAD
$PAD
Sh "17" R 248 720 0 0 0
Dr 0 0 0
At SMD N 00888000
Ne 0 ""
Po 750 -1933
$EndPAD
$PAD
Sh "18" R 248 720 0 0 0
Dr 0 0 0
At SMD N 00888000
Ne 0 ""
Po 250 -1933
$EndPAD
$PAD
Sh "19" R 248 720 0 0 0
Dr 0 0 0
At SMD N 00888000
Ne 0 ""
Po -250 -1933
$EndPAD
$PAD
Sh "20" R 248 720 0 0 0
Dr 0 0 0
At SMD N 00888000
Ne 0 ""
Po -750 -1933
$EndPAD
$PAD
Sh "21" R 248 720 0 0 0
Dr 0 0 0
At SMD N 00888000
Ne 0 ""
Po -1250 -1933
$EndPAD
$PAD
Sh "22" R 248 720 0 0 0
Dr 0 0 0
At SMD N 00888000
Ne 0 ""
Po -1750 -1933
$EndPAD
$PAD
Sh "23" R 248 720 0 0 0
Dr 0 0 0
At SMD N 00888000
Ne 0 ""
Po -2250 -1933
$EndPAD
$PAD
Sh "24" R 248 720 0 0 0
Dr 0 0 0
At SMD N 00888000
Ne 0 ""
Po -2750 -1933
$EndPAD
$EndMODULE SOP-24
$MODULE SOP-28
Po 0 0 0 15 5259D3B2 00000000 ~~
Li SOP-28
Sc 0
AR /5258B5FF
Op 0 0 0
T0 0 0 394 394 0 59 N V 21 N "U1"
T1 -2362 0 394 394 900 59 N V 21 N "HT16K33"
DS 3543 0 3543 1378 59 21
DS 3543 1378 -3543 1378 59 21
DS -3543 1378 -3543 -1378 59 21
DS -3543 -1378 3543 -1378 59 21
DS 3543 -1378 3543 0 59 21
DC -3053 901 -3053 1151 59 21
$PAD
Sh "1" R 248 720 0 0 0
Dr 0 0 0
At SMD N 00888000
Ne 9 "/GND"
Po -3250 1933
$EndPAD
$PAD
Sh "2" R 248 720 0 0 0
Dr 0 0 0
At SMD N 00888000
Ne 1 "/C0"
Po -2750 1933
$EndPAD
$PAD
Sh "3" R 248 720 0 0 0
Dr 0 0 0
At SMD N 00888000
Ne 2 "/C1"
Po -2250 1933
$EndPAD
$PAD
Sh "4" R 248 720 0 0 0
Dr 0 0 0
At SMD N 00888000
Ne 3 "/C2"
Po -1750 1933
$EndPAD
$PAD
Sh "5" R 248 720 0 0 0
Dr 0 0 0
At SMD N 00888000
Ne 4 "/C3"
Po -1250 1933
$EndPAD
$PAD
Sh "6" R 248 720 0 0 0
Dr 0 0 0
At SMD N 00888000
Ne 5 "/C4"
Po -750 1933
$EndPAD
$PAD
Sh "7" R 248 720 0 0 0
Dr 0 0 0
At SMD N 00888000
Ne 6 "/C5"
Po -250 1933
$EndPAD
$PAD
Sh "8" R 248 720 0 0 0
Dr 0 0 0
At SMD N 00888000
Ne 7 "/C6"
Po 250 1933
$EndPAD
$PAD
Sh "9" R 248 720 0 0 0
Dr 0 0 0
At SMD N 00888000
Ne 8 "/C7"
Po 750 1933
$EndPAD
$PAD
Sh "10" R 248 720 0 0 0
Dr 0 0 0
At SMD N 00888000
Ne 17 "/R15"
Po 1250 1933
$EndPAD
$PAD
Sh "11" R 248 720 0 0 0
Dr 0 0 0
At SMD N 00888000
Ne 16 "/R14"
Po 1750 1933
$EndPAD
$PAD
Sh "12" R 248 720 0 0 0
Dr 0 0 0
At SMD N 00888000
Ne 15 "/R13"
Po 2250 1933
$EndPAD
$PAD
Sh "13" R 248 720 0 0 0
Dr 0 0 0
At SMD N 00888000
Ne 14 "/R12"
Po 2750 1933
$EndPAD
$PAD
Sh "14" R 248 720 0 0 0
Dr 0 0 0
At SMD N 00888000
Ne 13 "/R11"
Po 3250 1933
$EndPAD
$PAD
Sh "15" R 248 720 0 0 0
Dr 0 0 0
At SMD N 00888000
Ne 12 "/R10"
Po 3250 -1933
$EndPAD
$PAD
Sh "16" R 248 720 0 0 0
Dr 0 0 0
At SMD N 00888000
Ne 25 "/R9"
Po 2750 -1933
$EndPAD
$PAD
Sh "17" R 248 720 0 0 0
Dr 0 0 0
At SMD N 00888000
Ne 24 "/R8"
Po 2250 -1933
$EndPAD
$PAD
Sh "18" R 248 720 0 0 0
Dr 0 0 0
At SMD N 00888000
Ne 23 "/R7"
Po 1750 -1933
$EndPAD
$PAD
Sh "19" R 248 720 0 0 0
Dr 0 0 0
At SMD N 00888000
Ne 22 "/R6"
Po 1250 -1933
$EndPAD
$PAD
Sh "20" R 248 720 0 0 0
Dr 0 0 0
At SMD N 00888000
Ne 21 "/R5"
Po 750 -1933
$EndPAD
$PAD
Sh "21" R 248 720 0 0 0
Dr 0 0 0
At SMD N 00888000
Ne 20 "/R4"
Po 250 -1933
$EndPAD
$PAD
Sh "22" R 248 720 0 0 0
Dr 0 0 0
At SMD N 00888000
Ne 19 "/R3"
Po -250 -1933
$EndPAD
$PAD
Sh "23" R 248 720 0 0 0
Dr 0 0 0
At SMD N 00888000
Ne 18 "/R2"
Po -750 -1933
$EndPAD
$PAD
Sh "24" R 248 720 0 0 0
Dr 0 0 0
At SMD N 00888000
Ne 11 "/R1"
Po -1250 -1933
$EndPAD
$PAD
Sh "25" R 248 720 0 0 0
Dr 0 0 0
At SMD N 00888000
Ne 10 "/R0"
Po -1750 -1933
$EndPAD
$PAD
Sh "26" R 248 720 0 0 0
Dr 0 0 0
At SMD N 00888000
Ne 26 "/SCL"
Po -2250 -1933
$EndPAD
$PAD
Sh "27" R 248 720 0 0 0
Dr 0 0 0
At SMD N 00888000
Ne 27 "/SDA"
Po -2750 -1933
$EndPAD
$PAD
Sh "28" R 248 720 0 0 0
Dr 0 0 0
At SMD N 00888000
Ne 28 "/VCC"
Po -3250 -1933
$EndPAD
$EndMODULE SOP-28
$MODULE TQFP-32
Po 0 0 0 15 5258A5B1 00000000 ~~
Li TQFP-32
Sc 0
AR /5192B8B7
Op 0 0 0
T0 0 -906 354 354 0 47 N V 21 N "U2"
T1 0 0 394 394 0 59 N V 21 N "AT90USB162"
DS -1575 -1575 -1575 1575 59 21
DS -1575 1575 1575 1575 59 21
DS 1575 1575 1575 -1575 59 21
DS 1575 -1575 -1575 -1575 59 21
DC -1102 1102 -1102 1220 59 21
$PAD
Sh "1" R 161 591 0 0 0
Dr 0 0 0
At SMD N 00888000
Ne 13 "N-0000055"
Po -1102 1674
$EndPAD
$PAD
Sh "2" R 161 591 0 0 0
Dr 0 0 0
At SMD N 00888000
Ne 11 "N-0000053"
Po -787 1674
$EndPAD
$PAD
Sh "3" R 161 591 0 0 0
Dr 0 0 0
At SMD N 00888000
Ne 1 "/GND"
Po -472 1674
$EndPAD
$PAD
Sh "4" R 161 591 0 0 0
Dr 0 0 0
At SMD N 00888000
Ne 7 "/VCC"
Po -157 1674
$EndPAD
$PAD
Sh "5" R 161 591 0 0 0
Dr 0 0 0
At SMD N 00888000
Ne 0 ""
Po 158 1674
$EndPAD
$PAD
Sh "6" R 161 591 0 0 0
Dr 0 0 0
At SMD N 00888000
Ne 2 "/INT0"
Po 473 1674
$EndPAD
$PAD
Sh "7" R 161 591 0 0 0
Dr 0 0 0
At SMD N 00888000
Ne 3 "/INT1"
Po 788 1674
$EndPAD
$PAD
Sh "8" R 161 591 0 0 0
Dr 0 0 0
At SMD N 00888000
Ne 4 "/INT2"
Po 1103 1674
$EndPAD
$PAD
Sh "17" R 161 591 0 0 0
Dr 0 0 0
At SMD N 00888000
Ne 0 ""
Po 1103 -1672
$EndPAD
$PAD
Sh "18" R 161 591 0 0 0
Dr 0 0 0
At SMD N 00888000
Ne 0 ""
Po 788 -1672
$EndPAD
$PAD
Sh "19" R 161 591 0 0 0
Dr 0 0 0
At SMD N 00888000
Ne 0 ""
Po 473 -1672
$EndPAD
$PAD
Sh "20" R 161 591 0 0 0
Dr 0 0 0
At SMD N 00888000
Ne 0 ""
Po 158 -1672
$EndPAD
$PAD
Sh "21" R 161 591 0 0 0
Dr 0 0 0
At SMD N 00888000
Ne 0 ""
Po -157 -1672
$EndPAD
$PAD
Sh "22" R 161 591 0 0 0
Dr 0 0 0
At SMD N 00888000
Ne 0 ""
Po -472 -1672
$EndPAD
$PAD
Sh "23" R 161 591 0 0 0
Dr 0 0 0
At SMD N 00888000
Ne 0 ""
Po -787 -1672
$EndPAD
$PAD
Sh "24" R 161 591 0 0 0
Dr 0 0 0
At SMD N 00888000
Ne 12 "N-0000054"
Po -1102 -1672
$EndPAD
$PAD
Sh "9" R 591 160 0 0 0
Dr 0 0 0
At SMD N 00888000
Ne 0 ""
Po 1673 1103
$EndPAD
$PAD
Sh "10" R 591 160 0 0 0
Dr 0 0 0
At SMD N 00888000
Ne 0 ""
Po 1673 788
$EndPAD
$PAD
Sh "11" R 591 160 0 0 0
Dr 0 0 0
At SMD N 00888000
Ne 0 ""
Po 1673 473
$EndPAD
$PAD
Sh "12" R 591 160 0 0 0
Dr 0 0 0
At SMD N 00888000
Ne 0 ""
Po 1673 158
$EndPAD
$PAD
Sh "13" R 591 160 0 0 0
Dr 0 0 0
At SMD N 00888000
Ne 0 ""
Po 1673 -157
$EndPAD
$PAD
Sh "14" R 591 160 0 0 0
Dr 0 0 0
At SMD N 00888000
Ne 5 "/SCL"
Po 1673 -472
$EndPAD
$PAD
Sh "15" R 591 160 0 0 0
Dr 0 0 0
At SMD N 00888000
Ne 6 "/SDA"
Po 1673 -786
$EndPAD
$PAD
Sh "16" R 591 160 0 0 0
Dr 0 0 0
At SMD N 00888000
Ne 0 ""
Po 1673 -1101
$EndPAD
$PAD
Sh "26" R 591 160 0 0 0
Dr 0 0 0
At SMD N 00888000
Ne 0 ""
Po -1673 -788
$EndPAD
$PAD
Sh "27" R 591 160 0 0 0
Dr 0 0 0
At SMD N 00888000
Ne 10 "N-0000047"
Po -1673 -472
$EndPAD
$PAD
Sh "28" R 591 160 0 0 0
Dr 0 0 0
At SMD N 00888000
Ne 1 "/GND"
Po -1673 -157
$EndPAD
$PAD
Sh "29" R 591 160 0 0 0
Dr 0 0 0
At SMD N 00888000
Ne 9 "N-0000032"
Po -1673 157
$EndPAD
$PAD
Sh "30" R 591 160 0 0 0
Dr 0 0 0
At SMD N 00888000
Ne 8 "N-0000031"
Po -1673 472
$EndPAD
$PAD
Sh "31" R 591 160 0 0 0
Dr 0 0 0
At SMD N 00888000
Ne 7 "/VCC"
Po -1673 788
$EndPAD
$PAD
Sh "32" R 591 160 0 0 0
Dr 0 0 0
At SMD N 00888000
Ne 7 "/VCC"
Po -1673 1102
$EndPAD
$PAD
Sh "25" R 591 160 0 0 0
Dr 0 0 0
At SMD N 00888000
Ne 0 ""
Po -1673 -1101
$EndPAD
$EndMODULE TQFP-32
$EndLIBRARY
